Trade Type,Buy Confidence,Sell Confidence,Trade Timestamp,Coin Price (Dollars),Balance Before Trade (Dollars),Balance After Trade (Dollars),Coin Balance Before Trade,Coin Balance After Trade,Net Portfolio Value (Dollars),Trading Fee,Trading Fee Cost (Dollars),Coin Name
buy,1.0,0.0,2018-10-01,6647.3878029401,500.0,0.0,0.07521751623680703,0.15005894489243002,997.5,0.005,2.5,BTC
sell,0.0,1.0,2018-10-15,6341.380721616099,0.0,946.8229957456739,0.15005894489243002,0.0,946.8229957456739,0.005,4.757904501234542,BTC
buy,1.0,0.0,2018-11-01,6322.0936278344,946.8229957456739,0.0,0.0,0.1490153319810376,942.0888807669455,0.005,4.734114978728369,BTC
sell,0.0,1.0,2018-11-15,5524.764808931999,0.0,819.1582888095548,0.1490153319810376,0.0,819.1582888095548,0.005,4.116373310600778,BTC
buy,1.0,0.0,2018-12-01,3953.5214624664,819.1582888095548,0.0,0.0,0.20616114142884437,815.062497365507,0.005,4.095791444047775,BTC
sell,0.0,1.0,2018-12-15,3212.2071589501,0.0,658.9211329230826,0.20616114142884437,0.0,658.9211329230826,0.005,3.3111614719752898,BTC
buy,1.0,0.0,2019-01-01,3693.3300666654,658.9211329230826,0.0,0.0,0.1775163647505822,655.6265272584671,0.005,3.294605664615413,BTC
sell,0.0,1.0,2019-01-15,3653.6803179504,0.0,645.3451077632898,0.1775163647505822,0.0,645.3451077632898,0.005,3.2429402400165315,BTC
buy,1.0,0.0,2019-02-01,3412.7222187981,645.3451077632898,0.0,0.0,0.18815430646172426,642.1183822244733,0.005,3.226725538816449,BTC
sell,0.0,1.0,2019-02-15,3555.1994796906,0.0,665.5814619720965,0.18815430646172426,0.0,665.5814619720965,0.005,3.3446304621713394,BTC
buy,1.0,0.0,2019-03-01,3799.3670260062,665.5814619720965,0.0,0.0,0.1743062857916047,662.253554662236,0.005,3.3279073098604823,BTC
sell,0.0,1.0,2019-03-15,3855.7443243865996,0.0,668.7200697851589,0.1743062857916047,0.0,668.7200697851589,0.005,3.360402360729442,BTC
buy,1.0,0.0,2019-04-01,4094.7047913777,668.7200697851589,0.0,0.0,0.16249681071937822,665.3764694362332,0.005,3.3436003489257944,BTC
sell,0.0,1.0,2019-04-15,5145.8703659694,0.0,832.0065852311601,0.16249681071937822,0.0,832.0065852311601,0.005,4.180937614226935,BTC
buy,1.0,0.0,2019-05-01,5277.4444500009995,832.0065852311601,0.0,0.0,0.15686504332695486,827.8465523050043,0.005,4.1600329261558,BTC
sell,0.0,1.0,2019-05-15,7989.1277083975,0.0,1246.9487898017376,0.15686504332695486,0.0,1246.9487898017376,0.005,6.266074320611747,BTC
buy,1.0,0.0,2019-06-01,8514.3959265461,1246.9487898017376,0.0,0.0,0.14571956208712858,1240.714045852729,0.005,6.2347439490086884,BTC
sell,0.0,1.0,2019-06-15,8698.1445368264,0.0,1261.1523638125084,0.14571956208712858,0.0,1261.1523638125084,0.005,6.337449064384464,BTC
buy,1.0,0.0,2019-07-01,10932.3074892823,1261.1523638125084,0.0,0.0,0.11478332485833014,1254.8466019934458,0.005,6.305761819062542,BTC
sell,0.0,1.0,2019-07-15,10506.3482141274,0.0,1199.9238122362374,0.11478332485833014,0.0,1199.9238122362374,0.005,6.02976790068461,BTC
buy,1.0,0.0,2019-08-01,10005.2892918685,1199.9238122362374,0.0,0.0,0.11932930256653174,1193.9241931750562,0.005,5.999619061181187,BTC
sell,0.0,1.0,2019-08-15,10211.509511264001,0.0,1212.4396465899854,0.11932930256653174,0.0,1212.4396465899854,0.005,6.092661540653193,BTC
buy,1.0,0.0,2019-09-01,9624.9799668178,1212.4396465899854,0.0,0.0,0.12533817758748922,1206.3774483570355,0.005,6.062198232949927,BTC
sell,0.0,1.0,2019-09-15,10361.0856374306,0.0,1292.1463936653433,0.12533817758748922,0.0,1292.1463936653433,0.005,6.493197958117303,BTC
buy,1.0,0.0,2019-10-01,8298.6247752408,1292.1463936653433,0.0,0.0,0.15492755685651666,1285.6856616970167,0.005,6.460731968326717,BTC
sell,0.0,1.0,2019-10-15,8355.0,0.0,1287.9476388485157,0.15492755685651666,0.0,1287.9476388485157,0.005,6.472098687680983,BTC
buy,1.0,0.0,2019-11-01,9131.417153149001,1287.9476388485157,0.0,0.0,0.14034052756119467,1281.507900654273,0.005,6.439738194242579,BTC
sell,0.0,1.0,2019-11-15,8656.9718583229,0.0,1208.8493776910543,0.14034052756119467,0.0,1208.8493776910543,0.005,6.074619988397258,BTC
buy,1.0,0.0,2019-12-01,7542.2453443015,1208.8493776910543,0.0,0.0,0.1594757364544461,1202.805130802599,0.005,6.044246888455271,BTC
sell,0.0,1.0,2019-12-15,7087.0249577639,0.0,1124.5574817883853,0.1594757364544461,0.0,1124.5574817883853,0.005,5.651042622052188,BTC
buy,1.0,0.0,2020-01-01,7179.957688622099,1124.5574817883853,0.0,0.0,0.15584140504791433,1118.9346943794433,0.005,5.622787408941926,BTC
sell,0.0,1.0,2020-01-15,8735.148417312299,0.0,1354.4913136427338,0.15584140504791433,0.0,1354.4913136427338,0.005,6.8064890132800695,BTC
buy,1.0,0.0,2020-02-01,9388.8790704776,1354.4913136427338,0.0,0.0,0.14354417039114803,1347.7188570745202,0.005,6.772456568213669,BTC
sell,0.0,1.0,2020-02-15,10367.5274787261,0.0,1480.7571402864628,0.14354417039114803,0.0,1480.7571402864628,0.005,7.4409906547058435,BTC
buy,1.0,0.0,2020-03-01,8639.5920809829,1480.7571402864628,0.0,0.0,0.17053506007860172,1473.3533545850305,0.005,7.403785701432314,BTC
sell,0.0,1.0,2020-03-15,5304.1490746261,0.0,900.0206642016856,0.17053506007860172,0.0,900.0206642016856,0.005,4.522716905536108,BTC
buy,1.0,0.0,2020-04-01,6446.4426671473,900.0206642016856,0.0,0.0,0.13891701316828212,895.5205608806772,0.005,4.500103321008428,BTC
sell,0.0,1.0,2020-04-15,6887.5488979254005,0.0,952.0137323455384,0.13891701316828212,0.0,952.0137323455384,0.005,4.78398860475145,BTC
buy,1.0,0.0,2020-05-01,8767.6721431836,952.0137323455384,0.0,0.0,0.10803935733617163,947.2536636838107,0.005,4.760068661727693,BTC
sell,0.0,1.0,2020-05-15,9795.2825564091,0.0,1052.9846521590482,0.10803935733617163,0.0,1052.9846521590482,0.005,5.291380161603257,BTC
buy,1.0,0.0,2020-06-01,9427.2325353578,1052.9846521590482,0.0,0.0,0.11113757138891747,1047.719728898253,0.005,5.264923260795241,BTC
sell,0.0,1.0,2020-06-15,9351.6054773864,0.0,1034.1181477373025,0.11113757138891747,0.0,1034.1181477373025,0.005,5.196573606720114,BTC
buy,1.0,0.0,2020-07-01,9141.3482599688,1034.1181477373025,0.0,0.0,0.11255971523418667,1028.947556998616,0.005,5.170590738686513,BTC
sell,0.0,1.0,2020-07-15,9261.5114252243,0.0,1037.2607232181065,0.11255971523418667,0.0,1037.2607232181065,0.005,5.2123654433070685,BTC
buy,1.0,0.0,2020-08-01,11352.715035731699,1037.2607232181065,0.0,0.0,0.09090992034536673,1032.074419602016,0.005,5.186303616090533,BTC
sell,0.0,1.0,2020-08-15,11782.785589146899,0.0,1065.8162388591002,0.09090992034536673,0.0,1065.8162388591002,0.005,5.355860496779398,BTC
buy,1.0,0.0,2020-09-01,11661.427339208201,1065.8162388591002,0.0,0.0,0.09093973892022815,1060.4871576648047,0.005,5.329081194295501,BTC
sell,0.0,1.0,2020-09-15,10683.002909230601,0.0,966.6519479722214,0.09093973892022815,0.0,966.6519479722214,0.005,4.857547477247343,BTC
buy,1.0,0.0,2020-10-01,10778.8984931299,966.6519479722214,0.0,0.0,0.08923163056460644,961.8186882323603,0.005,4.833259739861107,BTC
